,date,city,rent,product
0,2021-01-01,Manisa,7,1953
1,2021-01-02,Çorum,14,1279
2,2021-01-03,Hakkari,17,1721
3,2021-01-04,Yalova,5,1593
4,2021-01-05,Bilecik,5,1598
5,2021-01-06,Kayseri,8,1894
6,2021-01-07,Manisa,16,1385
7,2021-01-08,Diyarbakır,10,1517
8,2021-01-09,Manisa,5,1216
9,2021-01-10,Mardin,2,1798
10,2021-01-11,Sivas,8,1735
11,2021-01-12,Bursa,14,1252
12,2021-01-13,Van,14,1428
13,2021-01-14,Ankara,14,1305
14,2021-01-15,Bayburt,8,1339
15,2021-01-16,Bartın,5,1010
16,2021-01-17,Elazığ,4,1955
17,2021-01-18,Eskişehir,8,1675
18,2021-01-19,Antalya,4,1879
19,2021-01-20,Gaziantep,9,1299
20,2021-01-21,Tokat,11,1986
21,2021-01-22,Kilis,12,1929
22,2021-01-23,Erzurum,10,1002
23,2021-01-24,Çankırı,9,1117
24,2021-01-25,Uşak,8,1867
25,2021-01-26,Adana,10,1762
26,2021-01-27,Bingöl,3,1230
27,2021-01-28,Edirne,15,1043
28,2021-01-29,Iğdır,7,1885
29,2021-01-30,İstanbul,6,1479
30,2021-01-31,Tokat,16,1397
31,2021-02-01,Hatay,14,1908
32,2021-02-02,Kırıkkale,14,1840
33,2021-02-03,Nevşehir,15,1307
34,2021-02-04,Nevşehir,6,1113
35,2021-02-05,Gaziantep,12,1007
36,2021-02-06,İstanbul,13,1188
37,2021-02-07,Rize,11,1954
38,2021-02-08,Erzincan,2,1977
39,2021-02-09,Artvin,4,1354
40,2021-02-10,Nevşehir,16,1639
41,2021-02-11,Siirt,2,1212
42,2021-02-12,Sinop,16,1566
43,2021-02-13,Afyon,8,1930
44,2021-02-14,Isparta,8,1206
45,2021-02-15,Yalova,2,1475
46,2021-02-16,Kırklareli,12,1893
47,2021-02-17,Uşak,10,1415
48,2021-02-18,Kars,16,1163
49,2021-02-19,Rize,10,1650
50,2021-02-20,Trabzon,6,1125
51,2021-02-21,Balıkesir,11,1109
52,2021-02-22,Şırnak,16,1043
53,2021-02-23,Tekirdağ,11,1215
54,2021-02-24,Ankara,2,1440
55,2021-02-25,Aksaray,15,1000
56,2021-02-26,Bayburt,1,1696
57,2021-02-27,Aksaray,13,1427
58,2021-02-28,Kilis,16,1337
59,2021-03-01,İçel (Mersin),7,1047
60,2021-03-02,Sakarya,8,1627
61,2021-03-03,Manisa,10,1362
62,2021-03-04,Bingöl,12,1859
63,2021-03-05,Denizli,9,1070
64,2021-03-06,Tekirdağ,3,1083
65,2021-03-07,Manisa,2,1695
66,2021-03-08,Bursa,1,1736
67,2021-03-09,Aydın,16,1431
68,2021-03-10,Aydın,11,1605
69,2021-03-11,Iğdır,5,1558
70,2021-03-12,Osmaniye,11,1685
71,2021-03-13,Artvin,11,1591
72,2021-03-14,Ankara,4,1877
73,2021-03-15,Yalova,5,1125
74,2021-03-16,Nevşehir,11,1314
75,2021-03-17,Denizli,2,1653
76,2021-03-18,Karaman,13,1118
77,2021-03-19,Balıkesir,3,1290
78,2021-03-20,Erzurum,16,1832
79,2021-03-21,Muğla,15,1580
80,2021-03-22,Tokat,7,1900
81,2021-03-23,Bilecik,9,1193
82,2021-03-24,Bingöl,13,1606
83,2021-03-25,Adıyaman,8,1963
84,2021-03-26,Adıyaman,7,1772
85,2021-03-27,Muş,9,1176
86,2021-03-28,Diyarbakır,8,1238
87,2021-03-29,Düzce,1,1350
88,2021-03-30,Adıyaman,11,1936
89,2021-03-31,Şırnak,8,1237
90,2021-04-01,Muş,4,1758
91,2021-04-02,Hatay,3,1599
92,2021-04-03,Bilecik,15,1890
93,2021-04-04,Hakkari,14,1952
94,2021-04-05,Burdur,3,1309
95,2021-04-06,Bursa,4,1850
96,2021-04-07,Erzurum,5,1594
97,2021-04-08,Gaziantep,10,1572
98,2021-04-09,Bayburt,13,1896
99,2021-04-10,Çorum,8,1070
100,2021-04-11,Hakkari,9,1696
101,2021-04-12,Adana,14,1594
102,2021-04-13,Tunceli,5,1184
103,2021-04-14,Giresun,12,1671
104,2021-04-15,Aydın,3,1672
105,2021-04-16,Tekirdağ,12,1565
106,2021-04-17,Rize,8,1887
107,2021-04-18,Bolu,6,1418
108,2021-04-19,Kahramanmaraş,12,1396
109,2021-04-20,Kütahya,16,1256
110,2021-04-21,Karabük,8,1349
111,2021-04-22,Şanlıurfa,15,1932
112,2021-04-23,Sakarya,13,1731
113,2021-04-24,Malatya,16,1179
114,2021-04-25,Antalya,13,1734
115,2021-04-26,Antalya,12,1485
116,2021-04-27,Bayburt,16,1256
117,2021-04-28,Şırnak,2,1509
118,2021-04-29,Hakkari,16,1113
119,2021-04-30,Yalova,15,1335
120,2021-05-01,Afyon,5,1252
121,2021-05-02,İçel (Mersin),2,1524
122,2021-05-03,Kocaeli,15,1127
123,2021-05-04,Burdur,3,1182
124,2021-05-05,Denizli,13,1619
125,2021-05-06,Van,2,1941
126,2021-05-07,Kırşehir,14,1944
127,2021-05-08,Ardahan,16,1050
128,2021-05-09,Aksaray,16,1243
129,2021-05-10,Diyarbakır,2,1951
130,2021-05-11,Kırklareli,7,1114
131,2021-05-12,Kırıkkale,6,1333
132,2021-05-13,Kars,10,1606
133,2021-05-14,Eskişehir,16,1068
134,2021-05-15,Kastamonu,8,1235
135,2021-05-16,Niğde,11,1624
136,2021-05-17,Balıkesir,17,1153
137,2021-05-18,İzmir,10,1663
138,2021-05-19,Diyarbakır,17,1484
139,2021-05-20,Tunceli,1,1915
140,2021-05-21,Amasya,12,1531
141,2021-05-22,İçel (Mersin),12,1411
142,2021-05-23,Denizli,16,1512
143,2021-05-24,Adıyaman,8,1908
144,2021-05-25,Denizli,17,1975
145,2021-05-26,Antalya,11,1325
146,2021-05-27,Adana,12,1054
147,2021-05-28,Tokat,11,1083
148,2021-05-29,Mardin,5,1837
149,2021-05-30,Uşak,9,1159
150,2021-05-31,Karaman,15,1015
151,2021-06-01,Muğla,17,1139
152,2021-06-02,Amasya,12,1897
153,2021-06-03,Burdur,12,1344
154,2021-06-04,İçel (Mersin),6,1124
155,2021-06-05,Yozgat,17,1326
156,2021-06-06,Kastamonu,4,1039
157,2021-06-07,Nevşehir,3,1191
158,2021-06-08,Kırklareli,10,1855
159,2021-06-09,Isparta,4,1730
160,2021-06-10,Hatay,3,1581
161,2021-06-11,İzmir,5,1156
162,2021-06-12,Ankara,15,1010
163,2021-06-13,Konya,13,1150
164,2021-06-14,Batman,14,1560
165,2021-06-15,Balıkesir,16,1130
166,2021-06-16,Burdur,11,1846
167,2021-06-17,Manisa,7,1818
168,2021-06-18,Uşak,10,1205
169,2021-06-19,Burdur,4,1409
170,2021-06-20,Kırklareli,8,1448
171,2021-06-21,Karaman,14,1925
172,2021-06-22,Hatay,1,1480
173,2021-06-23,Ardahan,4,1132
174,2021-06-24,Manisa,8,1495
175,2021-06-25,Bartın,5,1778
176,2021-06-26,Gümüşhane,15,1128
177,2021-06-27,Tokat,11,1113
178,2021-06-28,Edirne,3,1217
179,2021-06-29,İçel (Mersin),14,1028
180,2021-06-30,Ordu,7,1451
181,2021-07-01,Trabzon,17,1545
182,2021-07-02,Kırşehir,11,1931
183,2021-07-03,Malatya,12,1719
184,2021-07-04,Iğdır,4,1786
185,2021-07-05,Mardin,14,1768
186,2021-07-06,Bilecik,17,1872
187,2021-07-07,Aksaray,8,1315
188,2021-07-08,Kocaeli,17,1984
189,2021-07-09,Muğla,8,1658
190,2021-07-10,Amasya,15,1629
191,2021-07-11,Niğde,14,1031
192,2021-07-12,Ardahan,4,1377
193,2021-07-13,Aksaray,13,1355
194,2021-07-14,Malatya,2,1326
195,2021-07-15,Bartın,9,1787
196,2021-07-16,Çanakkale,3,1384
197,2021-07-17,Tekirdağ,6,1951
198,2021-07-18,Karabük,9,1842
199,2021-07-19,Diyarbakır,5,1398
200,2021-07-20,Antalya,4,1645
201,2021-07-21,Erzurum,9,1342
202,2021-07-22,Çorum,15,1365
203,2021-07-23,Sakarya,7,1783
204,2021-07-24,Balıkesir,14,1029
205,2021-07-25,Çanakkale,5,1238
206,2021-07-26,Tunceli,11,1758
207,2021-07-27,Yalova,10,1553
208,2021-07-28,Tunceli,12,1737
209,2021-07-29,Kilis,4,1484
210,2021-07-30,Denizli,14,1126
211,2021-07-31,Adıyaman,13,1690
212,2021-08-01,Kocaeli,17,1158
213,2021-08-02,Kayseri,8,1948
214,2021-08-03,Antalya,2,1544
215,2021-08-04,Aksaray,9,1826
216,2021-08-05,Kütahya,9,1396
217,2021-08-06,Rize,1,1085
218,2021-08-07,Diyarbakır,9,1629
219,2021-08-08,Bilecik,7,1156
220,2021-08-09,Siirt,15,1742
221,2021-08-10,Siirt,14,1388
222,2021-08-11,Batman,2,1257
223,2021-08-12,Kastamonu,16,1331
224,2021-08-13,Nevşehir,8,1910
225,2021-08-14,Bitlis,17,1212
226,2021-08-15,Kastamonu,4,1584
227,2021-08-16,Karaman,11,1003
228,2021-08-17,İstanbul,7,1014
229,2021-08-18,Aksaray,1,1421
230,2021-08-19,Tunceli,6,1782
231,2021-08-20,Muş,1,1904
232,2021-08-21,Sinop,7,1535
233,2021-08-22,Kars,8,1349
234,2021-08-23,Elazığ,10,1256
235,2021-08-24,Gaziantep,12,1984
236,2021-08-25,Kütahya,2,1397
237,2021-08-26,Tunceli,8,1726
238,2021-08-27,Adana,6,1673
239,2021-08-28,Uşak,11,1859
240,2021-08-29,Düzce,9,1820
241,2021-08-30,Uşak,15,1750
242,2021-08-31,Eskişehir,8,1596
243,2021-09-01,Şırnak,15,1467
244,2021-09-02,Samsun,2,1722
245,2021-09-03,Rize,3,1947
246,2021-09-04,Ankara,6,1985
247,2021-09-05,Tekirdağ,1,1961
248,2021-09-06,Batman,9,1625
249,2021-09-07,Muğla,8,1603
250,2021-09-08,Gümüşhane,17,1972
251,2021-09-09,Balıkesir,4,1750
252,2021-09-10,Kars,5,1158
253,2021-09-11,Muğla,7,1737
254,2021-09-12,Siirt,9,1489
255,2021-09-13,Bartın,7,1564
256,2021-09-14,Balıkesir,16,1699
257,2021-09-15,Kars,17,1051
258,2021-09-16,Tokat,2,1361
259,2021-09-17,Rize,1,1176
260,2021-09-18,Malatya,10,1757
261,2021-09-19,Düzce,5,1977
262,2021-09-20,Gümüşhane,10,1005
263,2021-09-21,Uşak,10,1167
264,2021-09-22,Uşak,8,1717
265,2021-09-23,Çanakkale,13,1554
266,2021-09-24,Kahramanmaraş,11,1918
267,2021-09-25,Malatya,14,1034
268,2021-09-26,Aydın,5,1079
269,2021-09-27,Muğla,11,1079
270,2021-09-28,Malatya,7,1091
271,2021-09-29,Sivas,16,1609
272,2021-09-30,Gümüşhane,11,1845
273,2021-10-01,Çanakkale,5,1734
274,2021-10-02,Aksaray,6,1792
275,2021-10-03,Balıkesir,9,1395
276,2021-10-04,Bartın,7,1021
277,2021-10-05,Erzincan,1,1268
278,2021-10-06,Batman,3,1718
279,2021-10-07,Osmaniye,1,1087
280,2021-10-08,Kırıkkale,1,1808
281,2021-10-09,Amasya,2,1649
282,2021-10-10,Kars,10,1169
283,2021-10-11,İstanbul,14,1550
284,2021-10-12,Nevşehir,4,1035
285,2021-10-13,İçel (Mersin),2,1920
286,2021-10-14,Adıyaman,4,1410
287,2021-10-15,İstanbul,12,1123
288,2021-10-16,Düzce,1,1284
289,2021-10-17,Muş,5,1054
290,2021-10-18,Van,3,1983
291,2021-10-19,Sinop,10,1563
292,2021-10-20,Çorum,17,1089
293,2021-10-21,Ordu,1,1932
294,2021-10-22,Uşak,6,1857
295,2021-10-23,Ordu,11,1405
296,2021-10-24,Bayburt,17,1734
297,2021-10-25,Burdur,10,1267
298,2021-10-26,Zonguldak,6,1103
299,2021-10-27,Ankara,11,1300
300,2021-10-28,Kastamonu,9,1703
301,2021-10-29,Mardin,2,1886
302,2021-10-30,Ordu,7,1952
303,2021-10-31,Şanlıurfa,4,1670
304,2021-11-01,Iğdır,5,1104
305,2021-11-02,Sakarya,3,1556
306,2021-11-03,Afyon,16,1143
307,2021-11-04,Gümüşhane,8,1852
308,2021-11-05,Elazığ,1,1969
309,2021-11-06,Karabük,12,1211
310,2021-11-07,Adana,12,1704
311,2021-11-08,Iğdır,9,1291
312,2021-11-09,Sinop,10,1330
313,2021-11-10,Bursa,5,1119
314,2021-11-11,Kırşehir,3,1056
315,2021-11-12,Uşak,1,1296
316,2021-11-13,Çanakkale,9,1294
317,2021-11-14,Kırıkkale,11,1473
318,2021-11-15,Bitlis,6,1185
319,2021-11-16,Düzce,16,1069
320,2021-11-17,İzmir,8,1738
321,2021-11-18,Kırıkkale,10,1259
322,2021-11-19,Erzurum,17,1855
323,2021-11-20,Şanlıurfa,9,1410
324,2021-11-21,Niğde,6,1152
325,2021-11-22,Aydın,3,1508
326,2021-11-23,Tekirdağ,7,1097
327,2021-11-24,Çankırı,3,1023
328,2021-11-25,Van,2,1449
329,2021-11-26,Eskişehir,1,1052
330,2021-11-27,İçel (Mersin),2,1125
331,2021-11-28,Karaman,10,1203
332,2021-11-29,Iğdır,9,1473
333,2021-11-30,Kars,6,1121
334,2021-12-01,Bolu,6,1835
335,2021-12-02,İstanbul,3,1015
336,2021-12-03,Erzincan,9,1218
337,2021-12-04,Gümüşhane,17,1085
338,2021-12-05,Sakarya,5,1546
339,2021-12-06,Antalya,6,1168
340,2021-12-07,Şırnak,1,1176
341,2021-12-08,Mardin,7,1719
342,2021-12-09,Niğde,3,1208
343,2021-12-10,Adıyaman,1,1144
344,2021-12-11,Kocaeli,12,1179
345,2021-12-12,İçel (Mersin),11,1095
346,2021-12-13,Elazığ,14,1692
347,2021-12-14,Karaman,17,1465
348,2021-12-15,Elazığ,6,1291
349,2021-12-16,Erzurum,12,1003
350,2021-12-17,Ordu,8,1794
351,2021-12-18,Muş,3,1118
352,2021-12-19,Erzincan,1,1963
353,2021-12-20,Kocaeli,17,1770
354,2021-12-21,Trabzon,4,1624
355,2021-12-22,Kayseri,12,1590
356,2021-12-23,Yozgat,6,1332
357,2021-12-24,Van,8,1315
358,2021-12-25,Niğde,7,1149
359,2021-12-26,Erzurum,6,1058
360,2021-12-27,Burdur,13,1370
361,2021-12-28,Rize,14,1507
362,2021-12-29,Adıyaman,16,1518
363,2021-12-30,Aydın,6,1606
